openair_lte/openair3/MESH/RRM/VCD/wave.vcd
$comment 
Affichage des echanges du RRM avec le RRC et le CMM             
utiliser GTKwave pour visualiser ce fichier   
->	http://linux-workshop.com/bybell/ver/wave/gtkwave9x.html         
$end
$timescale
	1us            
$end

$version
 	timing simulation 
$end

$var real  1 w00 CMM-->RRM	$end
$var real  1 w01 RRM-->CCM	$end
$var real  1 w02 RRC-->RRM 	$end
$var real  1 w03 RRM-->RRC   $end
$var real  1 w04 transaction   $end

$enddefinitions $end
#0
r0 w04
sz w01
sz w00
sz w03
sRRC_PHY_SYNCH_TO_MR_IND w02
#100000
r0 w04
sROUTER_IS_CH_IND w01
sz w02
#200000
r0 w04
sz w01
sCMM_INIT_CH_REQ w00
#300000
r0 w04
sz w00
sRRC_PHY_SYNCH_TO_CH_IND w02
#400000
r513 w04
sCMM_CX_SETUP_REQ w00
sz w02
#500000
r2 w04
sz w00
sRRM_INIT_CH_REQ w03
#600000
r3 w04
sRRM_RB_ESTABLISH_REQ w03
#700000
r3 w04
sz w03
sRRC_RB_ESTABLISH_RESP w02
#799999
r3 w04
sRRC_RB_ESTABLISH_CFM w02
#899999
r513 w04
sRRM_CX_SETUP_CNF w01
sz w02
#999999
r259 w04
sz w01
sRRC_CX_ESTABLISH_IND w02
#1099999
r0 w04
sRRM_ATTACH_IND w01
sz w02
#1300000
sz w04
sz w01
#1400000
sz w04
